\relax 
\providecommand\hyper@newdestlabel[2]{}
\providecommand\HyperFirstAtBeginDocument{\AtBeginDocument}
\HyperFirstAtBeginDocument{\ifx\hyper@anchor\@undefined
\global\let\oldcontentsline\contentsline
\gdef\contentsline#1#2#3#4{\oldcontentsline{#1}{#2}{#3}}
\global\let\oldnewlabel\newlabel
\gdef\newlabel#1#2{\newlabelxx{#1}#2}
\gdef\newlabelxx#1#2#3#4#5#6{\oldnewlabel{#1}{{#2}{#3}}}
\AtEndDocument{\ifx\hyper@anchor\@undefined
\let\contentsline\oldcontentsline
\let\newlabel\oldnewlabel
\fi}
\fi}
\global\let\hyper@last\relax 
\gdef\HyperFirstAtBeginDocument#1{#1}
\providecommand\HyField@AuxAddToFields[1]{}
\providecommand\HyField@AuxAddToCoFields[2]{}
\@writefile{toc}{\contentsline {subsubsection}{Imports}{1}{section*.1}}
\newlabel{imports}{{}{1}{Imports}{section*.1}{}}
\@writefile{toc}{\contentsline {subsubsection}{Integrated notes}{1}{section*.2}}
\newlabel{integrated-notes}{{}{1}{Integrated notes}{section*.2}{}}
\@writefile{toc}{\contentsline {section}{Econometrics}{1}{section*.3}}
\newlabel{econometrics}{{}{1}{Econometrics}{section*.3}{}}
\@writefile{toc}{\contentsline {subsection}{Methodology of econometrics}{1}{section*.4}}
\newlabel{methodology-of-econometrics}{{}{1}{Methodology of econometrics}{section*.4}{}}
\@writefile{toc}{\contentsline {subsubsection}{Formulate an economic model}{1}{section*.5}}
\newlabel{formulate-an-economic-model}{{}{1}{Formulate an economic model}{section*.5}{}}
\@writefile{toc}{\contentsline {subsubsection}{Data Collection}{1}{section*.6}}
\newlabel{data-collection}{{}{1}{Data Collection}{section*.6}{}}
\@writefile{toc}{\contentsline {subsubsection}{Specify model mathematically}{1}{section*.7}}
\newlabel{specify-model-mathematically}{{}{1}{Specify model mathematically}{section*.7}{}}
\@writefile{toc}{\contentsline {subsubsection}{Specify econometric model.}{1}{section*.8}}
\newlabel{specify-econometric-model.}{{}{1}{Specify econometric model}{section*.8}{}}
\@writefile{toc}{\contentsline {subsubsection}{Estimation of model}{1}{section*.9}}
\newlabel{estimation-of-model}{{}{1}{Estimation of model}{section*.9}{}}
\@writefile{toc}{\contentsline {section}{Regression analysis}{2}{section*.10}}
\newlabel{regression-analysis}{{}{2}{Regression analysis}{section*.10}{}}
\@writefile{toc}{\contentsline {subsection}{Assumptions}{2}{section*.11}}
\newlabel{assumptions}{{}{2}{Assumptions}{section*.11}{}}
\@writefile{toc}{\contentsline {subsubsection}{Linearity in parameters}{2}{section*.12}}
\newlabel{linearity-in-parameters}{{}{2}{Linearity in parameters}{section*.12}{}}
\@writefile{toc}{\contentsline {subsection}{Warnings}{2}{section*.13}}
\newlabel{warnings}{{}{2}{Warnings}{section*.13}{}}
\@writefile{toc}{\contentsline {section}{Simple regression}{2}{section*.14}}
\newlabel{simple-regression}{{}{2}{Simple regression}{section*.14}{}}
\@writefile{toc}{\contentsline {subsection}{Mathematical model}{3}{section*.15}}
\newlabel{mathematical-model}{{}{3}{Mathematical model}{section*.15}{}}
\@writefile{toc}{\contentsline {subsection}{Stochastic model}{3}{section*.16}}
\newlabel{stochastic-model}{{}{3}{Stochastic model}{section*.16}{}}
\@writefile{toc}{\contentsline {section}{Line of best fit}{3}{section*.17}}
\newlabel{line-of-best-fit}{{}{3}{Line of best fit}{section*.17}{}}
\@writefile{toc}{\contentsline {section}{OLS estimator}{3}{section*.18}}
\newlabel{ols-estimator}{{}{3}{OLS estimator}{section*.18}{}}
\@writefile{toc}{\contentsline {subsection}{OLS}{3}{section*.19}}
\newlabel{ols}{{}{3}{OLS}{section*.19}{}}
\@writefile{toc}{\contentsline {subsubsection}{BLUE}{4}{section*.20}}
\newlabel{blue}{{}{4}{BLUE}{section*.20}{}}
\@writefile{toc}{\contentsline {subsubsection}{Derivation}{4}{section*.21}}
\newlabel{derivation}{{}{4}{Derivation}{section*.21}{}}
\@writefile{toc}{\contentsline {subsection}{Derivation}{4}{section*.22}}
\newlabel{derivation-1}{{}{4}{Derivation}{section*.22}{}}
\@writefile{toc}{\contentsline {subsection}{Minimizing}{4}{section*.23}}
\newlabel{minimizing}{{}{4}{Minimizing}{section*.23}{}}
\@writefile{toc}{\contentsline {subsubsection}{Result}{4}{section*.24}}
\newlabel{result}{{}{4}{Result}{section*.24}{}}
\@writefile{toc}{\contentsline {subsubsection}{Proof}{5}{section*.25}}
\newlabel{proof}{{}{5}{Proof}{section*.25}{}}
\@writefile{toc}{\contentsline {paragraph}{FOC i}{5}{section*.26}}
\newlabel{foc-i}{{}{5}{FOC i}{section*.26}{}}
\@writefile{toc}{\contentsline {subparagraph}{Result}{5}{section*.27}}
\newlabel{result-1}{{}{5}{Result}{section*.27}{}}
\@writefile{toc}{\contentsline {subparagraph}{Proof}{5}{section*.28}}
\newlabel{proof-1}{{}{5}{Proof}{section*.28}{}}
\@writefile{toc}{\contentsline {paragraph}{FOC ii}{5}{section*.29}}
\newlabel{foc-ii}{{}{5}{FOC ii}{section*.29}{}}
\@writefile{toc}{\contentsline {subparagraph}{Result}{6}{section*.30}}
\newlabel{result-2}{{}{6}{Result}{section*.30}{}}
\@writefile{toc}{\contentsline {subparagraph}{Proof}{6}{section*.31}}
\newlabel{proof-2}{{}{6}{Proof}{section*.31}{}}
\@writefile{toc}{\contentsline {paragraph}{Solving i for \(\mathaccentV {bar}016{y}\)}{6}{section*.32}}
\newlabel{solving-i-for-bary}{{}{6}{\texorpdfstring {Solving i for \(\bar {y}\)}{Solving i for \textbackslash {}bar\{y\}}}{section*.32}{}}
\@writefile{toc}{\contentsline {subparagraph}{Result}{6}{section*.33}}
\newlabel{result-3}{{}{6}{Result}{section*.33}{}}
\@writefile{toc}{\contentsline {subparagraph}{Proof}{6}{section*.34}}
\newlabel{proof-3}{{}{6}{Proof}{section*.34}{}}
\@writefile{toc}{\contentsline {subsubsection}{Lemma 1}{7}{section*.35}}
\newlabel{lemma-1}{{}{7}{Lemma 1}{section*.35}{}}
\@writefile{toc}{\contentsline {paragraph}{Solving ii and iv for \(\DOTSB \sum@ \slimits@ x_i y_i\)}{7}{section*.36}}
\newlabel{solving-ii-and-iv-for-sum-x_i-y_i}{{}{7}{\texorpdfstring {Solving ii and iv for \(\sum x_i y_i\)}{Solving ii and iv for \textbackslash {}sum x\_i y\_i}}{section*.36}{}}
\@writefile{toc}{\contentsline {subparagraph}{Result}{7}{section*.37}}
\newlabel{result-4}{{}{7}{Result}{section*.37}{}}
\@writefile{toc}{\contentsline {subparagraph}{Proof}{7}{section*.38}}
\newlabel{proof-4}{{}{7}{Proof}{section*.38}{}}
\@writefile{toc}{\contentsline {paragraph}{Solving v for \(\beta _2\)}{8}{section*.39}}
\newlabel{solving-v-for-beta_2}{{}{8}{\texorpdfstring {Solving v for \(\beta _2\)}{Solving v for \textbackslash {}beta\_2}}{section*.39}{}}
\@writefile{toc}{\contentsline {subparagraph}{Result}{8}{section*.40}}
\newlabel{result-5}{{}{8}{Result}{section*.40}{}}
\@writefile{toc}{\contentsline {subparagraph}{Proof}{8}{section*.41}}
\newlabel{proof-5}{{}{8}{Proof}{section*.41}{}}
\@writefile{toc}{\contentsline {section}{Classical regression model}{8}{section*.42}}
\newlabel{classical-regression-model}{{}{8}{Classical regression model}{section*.42}{}}
\@writefile{toc}{\contentsline {subsection}{Classical normal regression model}{9}{section*.43}}
\newlabel{classical-normal-regression-model}{{}{9}{Classical normal regression model}{section*.43}{}}
\@writefile{toc}{\contentsline {section}{Multi variable regression}{9}{section*.44}}
\newlabel{multi-variable-regression}{{}{9}{Multi variable regression}{section*.44}{}}
\@writefile{toc}{\contentsline {subsection}{3 variable}{9}{section*.45}}
\newlabel{variable}{{}{9}{3 variable}{section*.45}{}}
\@writefile{toc}{\contentsline {subsubsection}{None stochastic form}{9}{section*.46}}
\newlabel{none-stochastic-form}{{}{9}{None stochastic form}{section*.46}{}}
\@writefile{toc}{\contentsline {subsubsection}{Stochastic form}{9}{section*.47}}
\newlabel{stochastic-form}{{}{9}{Stochastic form}{section*.47}{}}
\@writefile{toc}{\contentsline {paragraph}{Example}{10}{section*.48}}
\newlabel{example}{{}{10}{Example}{section*.48}{}}
\@writefile{toc}{\contentsline {subsubsection}{Partial regression coefficients}{10}{section*.49}}
\newlabel{partial-regression-coefficients}{{}{10}{Partial regression coefficients}{section*.49}{}}
\@writefile{toc}{\contentsline {subsubsection}{Minimizing}{10}{section*.50}}
\newlabel{minimizing-1}{{}{10}{Minimizing}{section*.50}{}}
\@writefile{toc}{\contentsline {subsubsection}{Testing the significants of parameter estimators}{11}{section*.51}}
\newlabel{testing-the-significants-of-parameter-estimators}{{}{11}{Testing the significants of parameter estimators}{section*.51}{}}
\@writefile{toc}{\contentsline {subsection}{The coefficient of multiple determination}{11}{section*.52}}
\newlabel{the-coefficient-of-multiple-determination}{{}{11}{The coefficient of multiple determination}{section*.52}{}}
\@writefile{toc}{\contentsline {subsection}{Test for overall significants og the regression}{11}{section*.53}}
\newlabel{test-for-overall-significants-og-the-regression}{{}{11}{Test for overall significants og the regression}{section*.53}{}}
\@writefile{toc}{\contentsline {subsection}{Assumptions}{12}{section*.54}}
\newlabel{assumptions-1}{{}{12}{Assumptions}{section*.54}{}}
\@writefile{toc}{\contentsline {subsection}{Estimation of the multiple regression model}{12}{section*.55}}
\newlabel{estimation-of-the-multiple-regression-model}{{}{12}{Estimation of the multiple regression model}{section*.55}{}}
\@writefile{toc}{\contentsline {subsection}{Properties of OLS Estimators}{12}{section*.56}}
\newlabel{properties-of-ols-estimators}{{}{12}{Properties of OLS Estimators}{section*.56}{}}
\@writefile{toc}{\contentsline {subsection}{Is the model adequate if note go to step 1 if yes continue}{13}{section*.57}}
\newlabel{is-the-model-adequate-if-note-go-to-step-1-if-yes-continue}{{}{13}{Is the model adequate if note go to step 1 if yes continue}{section*.57}{}}
\@writefile{toc}{\contentsline {subsection}{Test any hypothisis suggested by the model}{13}{section*.58}}
\newlabel{test-any-hypothisis-suggested-by-the-model}{{}{13}{Test any hypothisis suggested by the model}{section*.58}{}}
\@writefile{toc}{\contentsline {subsection}{Use the model for predictions}{13}{section*.59}}
\newlabel{use-the-model-for-predictions}{{}{13}{Use the model for predictions}{section*.59}{}}
\@writefile{toc}{\contentsline {subsection}{Data types}{13}{section*.60}}
\newlabel{data-types}{{}{13}{Data types}{section*.60}{}}
\@writefile{toc}{\contentsline {section}{Chi squared distribution}{13}{section*.61}}
\newlabel{chi-squared-distribution}{{}{13}{Chi squared distribution}{section*.61}{}}
\@writefile{toc}{\contentsline {section}{Normal distribution}{13}{section*.62}}
\newlabel{normal-distribution}{{}{13}{Normal distribution}{section*.62}{}}
\@writefile{toc}{\contentsline {subsubsection}{Definition}{13}{section*.63}}
\newlabel{definition}{{}{13}{Definition}{section*.63}{}}
\@writefile{toc}{\contentsline {subsubsection}{\(\Phi \)}{14}{section*.64}}
\newlabel{phi}{{}{14}{\texorpdfstring {\(\Phi \)}{\textbackslash {}Phi}}{section*.64}{}}
\@writefile{toc}{\contentsline {section}{CDF}{14}{section*.65}}
\newlabel{cdf}{{}{14}{CDF}{section*.65}{}}
\@writefile{toc}{\contentsline {section}{Z score}{14}{section*.66}}
\newlabel{z-score}{{}{14}{Z score}{section*.66}{}}
\@writefile{toc}{\contentsline {subsection}{Standard normal distribution}{14}{section*.67}}
\newlabel{standard-normal-distribution}{{}{14}{Standard normal distribution}{section*.67}{}}
\@writefile{toc}{\contentsline {subsubsection}{Definition}{14}{section*.68}}
\newlabel{definition-1}{{}{14}{Definition}{section*.68}{}}
\@writefile{toc}{\contentsline {subsubsection}{\(\Phi \)}{14}{section*.69}}
\newlabel{phi-1}{{}{14}{\texorpdfstring {\(\Phi \)}{\textbackslash {}Phi}}{section*.69}{}}
\@writefile{toc}{\contentsline {section}{CDF}{14}{section*.70}}
\newlabel{cdf-1}{{}{14}{CDF}{section*.70}{}}
\@writefile{toc}{\contentsline {section}{F distribution}{15}{section*.71}}
\newlabel{f-distribution}{{}{15}{F distribution}{section*.71}{}}
\@writefile{toc}{\contentsline {section}{Appendix}{15}{section*.72}}
\newlabel{appendix}{{}{15}{Appendix}{section*.72}{}}
