\relax 
\providecommand\hyper@newdestlabel[2]{}
\providecommand\HyperFirstAtBeginDocument{\AtBeginDocument}
\HyperFirstAtBeginDocument{\ifx\hyper@anchor\@undefined
\global\let\oldcontentsline\contentsline
\gdef\contentsline#1#2#3#4{\oldcontentsline{#1}{#2}{#3}}
\global\let\oldnewlabel\newlabel
\gdef\newlabel#1#2{\newlabelxx{#1}#2}
\gdef\newlabelxx#1#2#3#4#5#6{\oldnewlabel{#1}{{#2}{#3}}}
\AtEndDocument{\ifx\hyper@anchor\@undefined
\let\contentsline\oldcontentsline
\let\newlabel\oldnewlabel
\fi}
\fi}
\global\let\hyper@last\relax 
\gdef\HyperFirstAtBeginDocument#1{#1}
\providecommand\HyField@AuxAddToFields[1]{}
\providecommand\HyField@AuxAddToCoFields[2]{}
\@writefile{toc}{\contentsline {subsubsection}{OLS estimator}{1}{section*.1}}
\newlabel{ols-estimator}{{}{1}{OLS estimator}{section*.1}{}}
\@writefile{toc}{\contentsline {subsubsection}{OLS}{1}{section*.2}}
\newlabel{ols}{{}{1}{OLS}{section*.2}{}}
\@writefile{toc}{\contentsline {subsubsection}{BLUE}{1}{section*.3}}
\newlabel{blue}{{}{1}{BLUE}{section*.3}{}}
\@writefile{toc}{\contentsline {subsubsection}{Derivation}{1}{section*.4}}
\newlabel{derivation}{{}{1}{Derivation}{section*.4}{}}
\@writefile{toc}{\contentsline {section}{Appendix}{1}{section*.5}}
\newlabel{appendix}{{}{1}{Appendix}{section*.5}{}}
