\relax 
\providecommand\hyper@newdestlabel[2]{}
\providecommand\HyperFirstAtBeginDocument{\AtBeginDocument}
\HyperFirstAtBeginDocument{\ifx\hyper@anchor\@undefined
\global\let\oldcontentsline\contentsline
\gdef\contentsline#1#2#3#4{\oldcontentsline{#1}{#2}{#3}}
\global\let\oldnewlabel\newlabel
\gdef\newlabel#1#2{\newlabelxx{#1}#2}
\gdef\newlabelxx#1#2#3#4#5#6{\oldnewlabel{#1}{{#2}{#3}}}
\AtEndDocument{\ifx\hyper@anchor\@undefined
\let\contentsline\oldcontentsline
\let\newlabel\oldnewlabel
\fi}
\fi}
\global\let\hyper@last\relax 
\gdef\HyperFirstAtBeginDocument#1{#1}
\providecommand\HyField@AuxAddToFields[1]{}
\providecommand\HyField@AuxAddToCoFields[2]{}
\@writefile{toc}{\contentsline {subsubsection}{Imports}{1}{section*.1}}
\newlabel{imports}{{}{1}{Imports}{section*.1}{}}
\@writefile{toc}{\contentsline {subsubsection}{Simple regression}{1}{section*.2}}
\newlabel{simple-regression}{{}{1}{Simple regression}{section*.2}{}}
\@writefile{toc}{\contentsline {subsubsection}{Mathematical model}{1}{section*.3}}
\newlabel{mathematical-model}{{}{1}{Mathematical model}{section*.3}{}}
\@writefile{toc}{\contentsline {subsubsection}{Stochastic model}{1}{section*.4}}
\newlabel{stochastic-model}{{}{1}{Stochastic model}{section*.4}{}}
\@writefile{toc}{\contentsline {section}{Line of best fit}{1}{section*.5}}
\newlabel{line-of-best-fit}{{}{1}{Line of best fit}{section*.5}{}}
\@writefile{toc}{\contentsline {section}{OLS estimator}{2}{section*.6}}
\newlabel{ols-estimator}{{}{2}{OLS estimator}{section*.6}{}}
\@writefile{toc}{\contentsline {subsection}{OLS}{2}{section*.7}}
\newlabel{ols}{{}{2}{OLS}{section*.7}{}}
\@writefile{toc}{\contentsline {subsubsection}{BLUE}{2}{section*.8}}
\newlabel{blue}{{}{2}{BLUE}{section*.8}{}}
\@writefile{toc}{\contentsline {subsubsection}{Derivation}{2}{section*.9}}
\newlabel{derivation}{{}{2}{Derivation}{section*.9}{}}
\@writefile{toc}{\contentsline {subsection}{Derivation}{2}{section*.10}}
\newlabel{derivation-1}{{}{2}{Derivation}{section*.10}{}}
\@writefile{toc}{\contentsline {subsection}{Minimizing}{2}{section*.11}}
\newlabel{minimizing}{{}{2}{Minimizing}{section*.11}{}}
\@writefile{toc}{\contentsline {subsubsection}{Result}{2}{section*.12}}
\newlabel{result}{{}{2}{Result}{section*.12}{}}
\@writefile{toc}{\contentsline {subsubsection}{Proof}{3}{section*.13}}
\newlabel{proof}{{}{3}{Proof}{section*.13}{}}
\@writefile{toc}{\contentsline {paragraph}{FOC i}{3}{section*.14}}
\newlabel{foc-i}{{}{3}{FOC i}{section*.14}{}}
\@writefile{toc}{\contentsline {subparagraph}{Result}{3}{section*.15}}
\newlabel{result-1}{{}{3}{Result}{section*.15}{}}
\@writefile{toc}{\contentsline {subparagraph}{Proof}{3}{section*.16}}
\newlabel{proof-1}{{}{3}{Proof}{section*.16}{}}
\@writefile{toc}{\contentsline {paragraph}{FOC ii}{4}{section*.17}}
\newlabel{foc-ii}{{}{4}{FOC ii}{section*.17}{}}
\@writefile{toc}{\contentsline {subparagraph}{Result}{4}{section*.18}}
\newlabel{result-2}{{}{4}{Result}{section*.18}{}}
\@writefile{toc}{\contentsline {subparagraph}{Proof}{4}{section*.19}}
\newlabel{proof-2}{{}{4}{Proof}{section*.19}{}}
\@writefile{toc}{\contentsline {paragraph}{Solving i for \(\mathaccentV {bar}016{y}\)}{4}{section*.20}}
\newlabel{solving-i-for-bary}{{}{4}{\texorpdfstring {Solving i for \(\bar {y}\)}{Solving i for \textbackslash {}bar\{y\}}}{section*.20}{}}
\@writefile{toc}{\contentsline {subparagraph}{Result}{4}{section*.21}}
\newlabel{result-3}{{}{4}{Result}{section*.21}{}}
\@writefile{toc}{\contentsline {subparagraph}{Proof}{5}{section*.22}}
\newlabel{proof-3}{{}{5}{Proof}{section*.22}{}}
\@writefile{toc}{\contentsline {subsubsection}{Lemma 1}{5}{section*.23}}
\newlabel{lemma-1}{{}{5}{Lemma 1}{section*.23}{}}
\@writefile{toc}{\contentsline {paragraph}{Solving ii and iv for \(\DOTSB \sum@ \slimits@ x_i y_i\)}{5}{section*.24}}
\newlabel{solving-ii-and-iv-for-sum-x_i-y_i}{{}{5}{\texorpdfstring {Solving ii and iv for \(\sum x_i y_i\)}{Solving ii and iv for \textbackslash {}sum x\_i y\_i}}{section*.24}{}}
\@writefile{toc}{\contentsline {subparagraph}{Result}{5}{section*.25}}
\newlabel{result-4}{{}{5}{Result}{section*.25}{}}
\@writefile{toc}{\contentsline {subparagraph}{Proof}{5}{section*.26}}
\newlabel{proof-4}{{}{5}{Proof}{section*.26}{}}
\@writefile{toc}{\contentsline {paragraph}{Solving v for \(\beta _2\)}{6}{section*.27}}
\newlabel{solving-v-for-beta_2}{{}{6}{\texorpdfstring {Solving v for \(\beta _2\)}{Solving v for \textbackslash {}beta\_2}}{section*.27}{}}
\@writefile{toc}{\contentsline {subparagraph}{Result}{6}{section*.28}}
\newlabel{result-5}{{}{6}{Result}{section*.28}{}}
\@writefile{toc}{\contentsline {subparagraph}{Proof}{6}{section*.29}}
\newlabel{proof-5}{{}{6}{Proof}{section*.29}{}}
\@writefile{toc}{\contentsline {section}{Appendix}{7}{section*.30}}
\newlabel{appendix}{{}{7}{Appendix}{section*.30}{}}
